{
    "GameType": "dames",
    "cases": [
        {
            "numColonne": 0,
            "numLigne": 0,
            "pieceType": 0,
            "playerOnCase": 0
        },
        {
            "numColonne": 1,
            "numLigne": 0,
            "pieceType": 112,
            "playerOnCase": 2
        },
        {
            "numColonne": 2,
            "numLigne": 0,
            "pieceType": 0,
            "playerOnCase": 0
        },
        {
            "numColonne": 3,
            "numLigne": 0,
            "pieceType": 112,
            "playerOnCase": 2
        },
        {
            "numColonne": 4,
            "numLigne": 0,
            "pieceType": 0,
            "playerOnCase": 0
        },
        {
            "numColonne": 5,
            "numLigne": 0,
            "pieceType": 112,
            "playerOnCase": 2
        },
        {
            "numColonne": 6,
            "numLigne": 0,
            "pieceType": 0,
            "playerOnCase": 0
        },
        {
            "numColonne": 7,
            "numLigne": 0,
            "pieceType": 112,
            "playerOnCase": 2
        },
        {
            "numColonne": 8,
            "numLigne": 0,
            "pieceType": 0,
            "playerOnCase": 0
        },
        {
            "numColonne": 9,
            "numLigne": 0,
            "pieceType": 112,
            "playerOnCase": 2
        },
        {
            "numColonne": 0,
            "numLigne": 1,
            "pieceType": 112,
            "playerOnCase": 2
        },
        {
            "numColonne": 1,
            "numLigne": 1,
            "pieceType": 0,
            "playerOnCase": 0
        },
        {
            "numColonne": 2,
            "numLigne": 1,
            "pieceType": 112,
            "playerOnCase": 2
        },
        {
            "numColonne": 3,
            "numLigne": 1,
            "pieceType": 0,
            "playerOnCase": 0
        },
        {
            "numColonne": 4,
            "numLigne": 1,
            "pieceType": 112,
            "playerOnCase": 2
        },
        {
            "numColonne": 5,
            "numLigne": 1,
            "pieceType": 0,
            "playerOnCase": 0
        },
        {
            "numColonne": 6,
            "numLigne": 1,
            "pieceType": 112,
            "playerOnCase": 2
        },
        {
            "numColonne": 7,
            "numLigne": 1,
            "pieceType": 0,
            "playerOnCase": 0
        },
        {
            "numColonne": 8,
            "numLigne": 1,
            "pieceType": 112,
            "playerOnCase": 2
        },
        {
            "numColonne": 9,
            "numLigne": 1,
            "pieceType": 0,
            "playerOnCase": 0
        },
        {
            "numColonne": 0,
            "numLigne": 2,
            "pieceType": 0,
            "playerOnCase": 0
        },
        {
            "numColonne": 1,
            "numLigne": 2,
            "pieceType": 112,
            "playerOnCase": 2
        },
        {
            "numColonne": 2,
            "numLigne": 2,
            "pieceType": 0,
            "playerOnCase": 0
        },
        {
            "numColonne": 3,
            "numLigne": 2,
            "pieceType": 112,
            "playerOnCase": 2
        },
        {
            "numColonne": 4,
            "numLigne": 2,
            "pieceType": 0,
            "playerOnCase": 0
        },
        {
            "numColonne": 5,
            "numLigne": 2,
            "pieceType": 112,
            "playerOnCase": 2
        },
        {
            "numColonne": 6,
            "numLigne": 2,
            "pieceType": 0,
            "playerOnCase": 0
        },
        {
            "numColonne": 7,
            "numLigne": 2,
            "pieceType": 112,
            "playerOnCase": 2
        },
        {
            "numColonne": 8,
            "numLigne": 2,
            "pieceType": 0,
            "playerOnCase": 0
        },
        {
            "numColonne": 9,
            "numLigne": 2,
            "pieceType": 112,
            "playerOnCase": 2
        },
        {
            "numColonne": 0,
            "numLigne": 3,
            "pieceType": 112,
            "playerOnCase": 2
        },
        {
            "numColonne": 1,
            "numLigne": 3,
            "pieceType": 0,
            "playerOnCase": 0
        },
        {
            "numColonne": 2,
            "numLigne": 3,
            "pieceType": 112,
            "playerOnCase": 2
        },
        {
            "numColonne": 3,
            "numLigne": 3,
            "pieceType": 0,
            "playerOnCase": 0
        },
        {
            "numColonne": 4,
            "numLigne": 3,
            "pieceType": 112,
            "playerOnCase": 2
        },
        {
            "numColonne": 5,
            "numLigne": 3,
            "pieceType": 0,
            "playerOnCase": 0
        },
        {
            "numColonne": 6,
            "numLigne": 3,
            "pieceType": 0,
            "playerOnCase": 0
        },
        {
            "numColonne": 7,
            "numLigne": 3,
            "pieceType": 0,
            "playerOnCase": 0
        },
        {
            "numColonne": 8,
            "numLigne": 3,
            "pieceType": 112,
            "playerOnCase": 2
        },
        {
            "numColonne": 9,
            "numLigne": 3,
            "pieceType": 0,
            "playerOnCase": 0
        },
        {
            "numColonne": 0,
            "numLigne": 4,
            "pieceType": 0,
            "playerOnCase": 0
        },
        {
            "numColonne": 1,
            "numLigne": 4,
            "pieceType": 0,
            "playerOnCase": 0
        },
        {
            "numColonne": 2,
            "numLigne": 4,
            "pieceType": 0,
            "playerOnCase": 0
        },
        {
            "numColonne": 3,
            "numLigne": 4,
            "pieceType": 0,
            "playerOnCase": 0
        },
        {
            "numColonne": 4,
            "numLigne": 4,
            "pieceType": 0,
            "playerOnCase": 0
        },
        {
            "numColonne": 5,
            "numLigne": 4,
            "pieceType": 112,
            "playerOnCase": 2
        },
        {
            "numColonne": 6,
            "numLigne": 4,
            "pieceType": 0,
            "playerOnCase": 0
        },
        {
            "numColonne": 7,
            "numLigne": 4,
            "pieceType": 0,
            "playerOnCase": 0
        },
        {
            "numColonne": 8,
            "numLigne": 4,
            "pieceType": 0,
            "playerOnCase": 0
        },
        {
            "numColonne": 9,
            "numLigne": 4,
            "pieceType": 0,
            "playerOnCase": 0
        },
        {
            "numColonne": 0,
            "numLigne": 5,
            "pieceType": 0,
            "playerOnCase": 0
        },
        {
            "numColonne": 1,
            "numLigne": 5,
            "pieceType": 0,
            "playerOnCase": 0
        },
        {
            "numColonne": 2,
            "numLigne": 5,
            "pieceType": 0,
            "playerOnCase": 0
        },
        {
            "numColonne": 3,
            "numLigne": 5,
            "pieceType": 0,
            "playerOnCase": 0
        },
        {
            "numColonne": 4,
            "numLigne": 5,
            "pieceType": 0,
            "playerOnCase": 0
        },
        {
            "numColonne": 5,
            "numLigne": 5,
            "pieceType": 0,
            "playerOnCase": 0
        },
        {
            "numColonne": 6,
            "numLigne": 5,
            "pieceType": 0,
            "playerOnCase": 0
        },
        {
            "numColonne": 7,
            "numLigne": 5,
            "pieceType": 0,
            "playerOnCase": 0
        },
        {
            "numColonne": 8,
            "numLigne": 5,
            "pieceType": 112,
            "playerOnCase": 1
        },
        {
            "numColonne": 9,
            "numLigne": 5,
            "pieceType": 0,
            "playerOnCase": 0
        },
        {
            "numColonne": 0,
            "numLigne": 6,
            "pieceType": 0,
            "playerOnCase": 0
        },
        {
            "numColonne": 1,
            "numLigne": 6,
            "pieceType": 112,
            "playerOnCase": 1
        },
        {
            "numColonne": 2,
            "numLigne": 6,
            "pieceType": 0,
            "playerOnCase": 0
        },
        {
            "numColonne": 3,
            "numLigne": 6,
            "pieceType": 112,
            "playerOnCase": 1
        },
        {
            "numColonne": 4,
            "numLigne": 6,
            "pieceType": 0,
            "playerOnCase": 0
        },
        {
            "numColonne": 5,
            "numLigne": 6,
            "pieceType": 112,
            "playerOnCase": 1
        },
        {
            "numColonne": 6,
            "numLigne": 6,
            "pieceType": 0,
            "playerOnCase": 0
        },
        {
            "numColonne": 7,
            "numLigne": 6,
            "pieceType": 112,
            "playerOnCase": 1
        },
        {
            "numColonne": 8,
            "numLigne": 6,
            "pieceType": 0,
            "playerOnCase": 0
        },
        {
            "numColonne": 9,
            "numLigne": 6,
            "pieceType": 0,
            "playerOnCase": 0
        },
        {
            "numColonne": 0,
            "numLigne": 7,
            "pieceType": 112,
            "playerOnCase": 1
        },
        {
            "numColonne": 1,
            "numLigne": 7,
            "pieceType": 0,
            "playerOnCase": 0
        },
        {
            "numColonne": 2,
            "numLigne": 7,
            "pieceType": 112,
            "playerOnCase": 1
        },
        {
            "numColonne": 3,
            "numLigne": 7,
            "pieceType": 0,
            "playerOnCase": 0
        },
        {
            "numColonne": 4,
            "numLigne": 7,
            "pieceType": 112,
            "playerOnCase": 1
        },
        {
            "numColonne": 5,
            "numLigne": 7,
            "pieceType": 0,
            "playerOnCase": 0
        },
        {
            "numColonne": 6,
            "numLigne": 7,
            "pieceType": 112,
            "playerOnCase": 1
        },
        {
            "numColonne": 7,
            "numLigne": 7,
            "pieceType": 0,
            "playerOnCase": 0
        },
        {
            "numColonne": 8,
            "numLigne": 7,
            "pieceType": 112,
            "playerOnCase": 1
        },
        {
            "numColonne": 9,
            "numLigne": 7,
            "pieceType": 0,
            "playerOnCase": 0
        },
        {
            "numColonne": 0,
            "numLigne": 8,
            "pieceType": 0,
            "playerOnCase": 0
        },
        {
            "numColonne": 1,
            "numLigne": 8,
            "pieceType": 112,
            "playerOnCase": 1
        },
        {
            "numColonne": 2,
            "numLigne": 8,
            "pieceType": 0,
            "playerOnCase": 0
        },
        {
            "numColonne": 3,
            "numLigne": 8,
            "pieceType": 112,
            "playerOnCase": 1
        },
        {
            "numColonne": 4,
            "numLigne": 8,
            "pieceType": 0,
            "playerOnCase": 0
        },
        {
            "numColonne": 5,
            "numLigne": 8,
            "pieceType": 112,
            "playerOnCase": 1
        },
        {
            "numColonne": 6,
            "numLigne": 8,
            "pieceType": 0,
            "playerOnCase": 0
        },
        {
            "numColonne": 7,
            "numLigne": 8,
            "pieceType": 112,
            "playerOnCase": 1
        },
        {
            "numColonne": 8,
            "numLigne": 8,
            "pieceType": 0,
            "playerOnCase": 0
        },
        {
            "numColonne": 9,
            "numLigne": 8,
            "pieceType": 112,
            "playerOnCase": 1
        },
        {
            "numColonne": 0,
            "numLigne": 9,
            "pieceType": 112,
            "playerOnCase": 1
        },
        {
            "numColonne": 1,
            "numLigne": 9,
            "pieceType": 0,
            "playerOnCase": 0
        },
        {
            "numColonne": 2,
            "numLigne": 9,
            "pieceType": 112,
            "playerOnCase": 1
        },
        {
            "numColonne": 3,
            "numLigne": 9,
            "pieceType": 0,
            "playerOnCase": 0
        },
        {
            "numColonne": 4,
            "numLigne": 9,
            "pieceType": 112,
            "playerOnCase": 1
        },
        {
            "numColonne": 5,
            "numLigne": 9,
            "pieceType": 0,
            "playerOnCase": 0
        },
        {
            "numColonne": 6,
            "numLigne": 9,
            "pieceType": 112,
            "playerOnCase": 1
        },
        {
            "numColonne": 7,
            "numLigne": 9,
            "pieceType": 0,
            "playerOnCase": 0
        },
        {
            "numColonne": 8,
            "numLigne": 9,
            "pieceType": 112,
            "playerOnCase": 1
        },
        {
            "numColonne": 9,
            "numLigne": 9,
            "pieceType": 0,
            "playerOnCase": 0
        }
    ],
    "playerTurn": 1
}
