{
    "GameType": "puissance4",
    "cases": [
        {
            "numColonne": 0,
            "numLigne": 0,
            "pieceType": 88,
            "playerOnCase": 0
        },
        {
            "numColonne": 1,
            "numLigne": 0,
            "pieceType": 88,
            "playerOnCase": 0
        },
        {
            "numColonne": 2,
            "numLigne": 0,
            "pieceType": 88,
            "playerOnCase": 2
        },
        {
            "numColonne": 3,
            "numLigne": 0,
            "pieceType": 88,
            "playerOnCase": 0
        },
        {
            "numColonne": 4,
            "numLigne": 0,
            "pieceType": 88,
            "playerOnCase": 0
        },
        {
            "numColonne": 5,
            "numLigne": 0,
            "pieceType": 88,
            "playerOnCase": 0
        },
        {
            "numColonne": 6,
            "numLigne": 0,
            "pieceType": 88,
            "playerOnCase": 2
        },
        {
            "numColonne": 0,
            "numLigne": 1,
            "pieceType": 88,
            "playerOnCase": 0
        },
        {
            "numColonne": 1,
            "numLigne": 1,
            "pieceType": 88,
            "playerOnCase": 0
        },
        {
            "numColonne": 2,
            "numLigne": 1,
            "pieceType": 88,
            "playerOnCase": 1
        },
        {
            "numColonne": 3,
            "numLigne": 1,
            "pieceType": 88,
            "playerOnCase": 0
        },
        {
            "numColonne": 4,
            "numLigne": 1,
            "pieceType": 88,
            "playerOnCase": 1
        },
        {
            "numColonne": 5,
            "numLigne": 1,
            "pieceType": 88,
            "playerOnCase": 0
        },
        {
            "numColonne": 6,
            "numLigne": 1,
            "pieceType": 88,
            "playerOnCase": 1
        },
        {
            "numColonne": 0,
            "numLigne": 2,
            "pieceType": 88,
            "playerOnCase": 0
        },
        {
            "numColonne": 1,
            "numLigne": 2,
            "pieceType": 88,
            "playerOnCase": 2
        },
        {
            "numColonne": 2,
            "numLigne": 2,
            "pieceType": 88,
            "playerOnCase": 2
        },
        {
            "numColonne": 3,
            "numLigne": 2,
            "pieceType": 88,
            "playerOnCase": 0
        },
        {
            "numColonne": 4,
            "numLigne": 2,
            "pieceType": 88,
            "playerOnCase": 2
        },
        {
            "numColonne": 5,
            "numLigne": 2,
            "pieceType": 88,
            "playerOnCase": 1
        },
        {
            "numColonne": 6,
            "numLigne": 2,
            "pieceType": 88,
            "playerOnCase": 2
        },
        {
            "numColonne": 0,
            "numLigne": 3,
            "pieceType": 88,
            "playerOnCase": 1
        },
        {
            "numColonne": 1,
            "numLigne": 3,
            "pieceType": 88,
            "playerOnCase": 1
        },
        {
            "numColonne": 2,
            "numLigne": 3,
            "pieceType": 88,
            "playerOnCase": 1
        },
        {
            "numColonne": 3,
            "numLigne": 3,
            "pieceType": 88,
            "playerOnCase": 2
        },
        {
            "numColonne": 4,
            "numLigne": 3,
            "pieceType": 88,
            "playerOnCase": 1
        },
        {
            "numColonne": 5,
            "numLigne": 3,
            "pieceType": 88,
            "playerOnCase": 2
        },
        {
            "numColonne": 6,
            "numLigne": 3,
            "pieceType": 88,
            "playerOnCase": 1
        }
    ],
    "playerTurn": 2
}
